OFF
16 9 0
0 0 0 1
0.5 0 0 1 
1 0 0 1
1 0.25 0 1
1 0.5 0 1
1 0.75 0 1
1 1 0 1
0.5 1 0 1
0 1 0 1
0 0.75 0 1
0 0.5 0 1
0 0.25 0 1
0.5 0.4 0 1
0.7 0.5 0 1
0.5 0.6 0 1
0.3 0.5 0 1
4 0 1 12 11
4 1 2 3 12
4 3 4 13 12
4 4 5 14 13
4 14 5 6 7
4 9 14 7 8
4 9 10 15 14
4 10 11 12 15
4 12 13 14 15